{
    "name": "Butter.Unity.Runtime",
    "references": [
        "GUID:9e4f798dbd31845e79244ef6d7851950"
    ],
    "includePlatforms": [],
    "excludePlatforms": [],
    "allowUnsafeCode": false,
    "overrideReferences": false,
    "precompiledReferences": [],
    "autoReferenced": true,
    "defineConstraints": [],
    "versionDefines": [],
    "noEngineReferences": false
}