{
    "name": "Butter.Databases.Editor",
    "references": [
        "GUID:3e5f94ca54d9e43f28e2c1bb7416d822",
        "GUID:f51ebe6a0ceec4240a699833d6309b23",
        "GUID:9e4f798dbd31845e79244ef6d7851950"
    ],
    "includePlatforms": [
        "Editor"
    ],
    "excludePlatforms": [],
    "allowUnsafeCode": false,
    "overrideReferences": false,
    "precompiledReferences": [],
    "autoReferenced": true,
    "defineConstraints": [],
    "versionDefines": [],
    "noEngineReferences": false
}