{
    "name": "Butter.Databases.Addressables.Editor",
    "references": [
        "GUID:9e4f798dbd31845e79244ef6d7851950",
        "GUID:3e5f94ca54d9e43f28e2c1bb7416d822",
        "GUID:7da4a08941bf14442849ea753c9fa566",
        "GUID:f51ebe6a0ceec4240a699833d6309b23",
        "GUID:593a5b492d29ac6448b1ebf7f035ef33",
        "GUID:9e24947de15b9834991c9d8411ea37cf",
        "GUID:69448af7b92c7f342b298e06a37122aa",
        "GUID:84651a3751eca9349aac36a66bba901b"
    ],
    "includePlatforms": [
        "Editor"
    ],
    "excludePlatforms": [],
    "allowUnsafeCode": false,
    "overrideReferences": false,
    "precompiledReferences": [],
    "autoReferenced": true,
    "defineConstraints": [],
    "versionDefines": [],
    "noEngineReferences": false
}